%YAML 1.1
%TAG !u! tag:unity3d.com,2011:
--- !u!21 &2100000
Material:
  serializedVersion: 6
  m_ObjectHideFlags: 0
  m_PrefabParentObject: {fileID: 0}
  m_PrefabInternal: {fileID: 0}
  m_Name: MarbleTiled_00
  m_Shader: {fileID: 4, guid: 0000000000000000f000000000000000, type: 0}
  m_ShaderKeywords: 
  m_LightmapFlags: 5
  m_CustomRenderQueue: -1
  stringTagMap: {}
  m_SavedProperties:
    serializedVersion: 2
    m_TexEnvs:
    - first:
        name: _BumpMap
      second:
        m_Texture: {fileID: 2800000, guid: ffb471929099ade449ec074ad132d189, type: 3}
        m_Scale: {x: 5, y: 1.5}
        m_Offset: {x: 0, y: 0}
    - first:
        name: _Illum
      second:
        m_Texture: {fileID: 0}
        m_Scale: {x: 1, y: 1}
        m_Offset: {x: 0, y: 0}
    - first:
        name: _MainTex
      second:
        m_Texture: {fileID: 2800000, guid: 12bd70c6784d1894a8dc0cf2675871a1, type: 3}
        m_Scale: {x: 5, y: 1.5}
        m_Offset: {x: 0, y: 0}
    m_Floats:
    - first:
        name: _EmissionLM
      second: 0
    - first:
        name: _Shininess
      second: 0.85463774
    m_Colors:
    - first:
        name: _Color
      second: {r: 0.8235294, g: 0.8235294, b: 0.8235294, a: 1}
    - first:
        name: _SpecColor
      second: {r: 0.16176468, g: 0.16176468, b: 0.16176468, a: 1}
